{
  "processos": [
    {
      "id": "000001",
      "descricao": "000001"
    },
    {
      "id": "000002",
      "tipo": "CIT",
      "descricao": "Processo2"
    },
    {
      "id": "000003",
      "tipo": "INT",
      "descricao": "Processo3"
    },
    {
      "id": "000004",
      "tipo": "CIT",
      "descricao": "Processo4"
    }
  ],
  "partes": [
    {
      "id": "1",
      "nome": "Jose"
    },
    {
      "id": "2",
      "nome": "Maria"
    },
    {
      "id": "3",
      "nome": "Joao"
    },
    {
      "id": "4",
      "nome": "Almir"
    },
    {
      "id": "5",
      "nome": "Gisele"
    }
  ],
  "processoPartes": [
    {
      "id": "1",
      "processoId": "000001",
      "parteId": "1"
    },
    {
      "id": "2",
      "processoId": "000001",
      "parteId": "2"
    },
    {
      "id": "3",
      "processoId": "000001",
      "parteId": "5"
    },
    {
      "id": "4",
      "processoId": "000002",
      "parteId": "4"
    },
    {
      "id": "5",
      "processoId": "000002",
      "parteId": "3"
    },
    {
      "id": "6",
      "processoId": "000003",
      "parteId": "1"
    },
    {
      "id": "7",
      "processoId": "000003",
      "parteId": "3"
    },
    {
      "id": "8",
      "processoId": "000003",
      "parteId": "5"
    },
    {
      "id": "9",
      "processoId": "000004",
      "parteId": "2"
    },
    {
      "id": "10",
      "processoId": "000004",
      "parteId": "4"
    },
    {
      "id": "11",
      "processoId": "000004",
      "parteId": "5"
    }
  ],
  "authors": [
    {
      "id": "erich-gamma",
      "name": "Erich Gamma"
    },
    {
      "id": "richard-helm",
      "name": "Richard Helm"
    },
    {
      "id": "ralph-johnson",
      "name": "Ralph Johnson"
    },
    {
      "id": "john-vlissides",
      "name": "John Vlissides"
    },
    {
      "id": "martin-fowler",
      "name": "Martin Fowler"
    },
    {
      "id": "eric-evans",
      "name": "Eric Evans"
    }
  ],
  "publishers": [
    {
      "id": "addison-wesley",
      "name": "Addison Wesley Publishing Company"
    }
  ],
  "books": [
    {
      "id": "design-patterns",
      "name": "Design Patterns - Elements of Reusable Object-Oriented Software",
      "publisherId": "addison-wesley"
    },
    {
      "id": "refactoring",
      "name": "Refactoring - Improving the Design of Existing Code",
      "publisherId": "addison-wesley"
    },
    {
      "id": "patterns-of-enterprise-application-architecture",
      "name": "Patterns of Enterprise Application Architecture",
      "publisherId": "addison-wesley"
    },
    {
      "id": "domain-driven-design",
      "name": "Domain-Driven Design",
      "publisherId": "addison-wesley"
    }
  ],
  "bookAuthors": [
    {
      "id": "design-patterns-erich-gamma",
      "bookId": "design-patterns",
      "authorId": "erich-gamma"
    },
    {
      "id": "design-patterns-richard-helm",
      "bookId": "design-patterns",
      "authorId": "richard-helm"
    },
    {
      "id": "design-patterns-ralph-johnson",
      "bookId": "design-patterns",
      "authorId": "ralph-johnson"
    },
    {
      "id": "design-patterns-john-vlissides",
      "bookId": "design-patterns",
      "authorId": "john-vlissides"
    },
    {
      "id": "refactoring-martin-fowler",
      "bookId": "refactoring",
      "authorId": "martin-fowler"
    },
    {
      "id": "patterns-of-enterprise-application-architecture-martin-fowler",
      "bookId": "patterns-of-enterprise-application-architecture",
      "authorId": "martin-fowler"
    },
    {
      "id": "domain-driven-design-eric-evans",
      "bookId": "domain-driven-design",
      "authorId": "eric-evans"
    }
  ]
}